…
#### Producing a Single, Tidy Dataset: Mr. Trash Wheel and Professor Trash Wheel

``` r
combined_trash_wheel = full_join(
  x = mr_trash_wheel, 
  y = professor_trash_wheel, 
  by = c("dumpster", "month", "year", "date", "weight_tons", "volume_cubic_yards", "plastic_bottles", "polystyrene", "cigarette_butts", "glass_bottles", "grocery_bags", "chip_bags", "homes_powered", "trash_wheel"))

combined_trash_wheel
## # A tibble: 641 × 15
##    dumpster month year  date                weight_tons volume…¹ plast…² polys…³
##       <dbl> <chr> <chr> <dttm>                    <dbl>    <dbl>   <dbl>   <dbl>
##  1        1 May   2014  2014-05-16 00:00:00        4.31       18    1450    1820
##  2        2 May   2014  2014-05-16 00:00:00        2.74       13    1120    1030
##  3        3 May   2014  2014-05-16 00:00:00        3.45       15    2450    3100
##  4        4 May   2014  2014-05-17 00:00:00        3.1        15    2380    2730
##  5        5 May   2014  2014-05-17 00:00:00        4.06       18     980     870
##  6        6 May   2014  2014-05-20 00:00:00        2.71       13    1430    2140
##  7        7 May   2014  2014-05-21 00:00:00        1.91        8     910    1090
##  8        8 May   2014  2014-05-28 00:00:00        3.7        16    3580    4310
##  9        9 June  2014  2014-06-05 00:00:00        2.52       14    2400    2790
## 10       10 June  2014  2014-06-11 00:00:00        3.76       18    1340    1730
## # … with 631 more rows, 7 more variables: cigarette_butts <dbl>,
## #   glass_bottles <dbl>, grocery_bags <dbl>, chip_bags <dbl>,
## #   sports_balls <dbl>, homes_powered <dbl>, trash_wheel <chr>, and abbreviated
## #   variable names ¹​volume_cubic_yards, ²​plastic_bottles, ³​polystyrene
```
…
